intro2R.knit
…
.footnote[

]

--

.pull-left[

```r
df[,3]
```

```
## # A tibble: 344 x 1
##    bill_length_mm
##             <dbl>
##  1           39.1
##  2           39.5
##  3           40.3
##  4           NA  
##  5           36.7
##  6           39.3
##  7           38.9
##  8           39.2
##  9           34.1
## 10           42  
## # ... with 334 more rows
```
…
#Data Frames

.footnote[

]
--
.pull-left[

```r
df[, "island"]
```

```
## # A tibble: 344 x 1
##    island   
##    <fct>    
##  1 Torgersen
##  2 Torgersen
##  3 Torgersen
##  4 Torgersen
##  5 Torgersen
##  6 Torgersen
##  7 Torgersen
##  8 Torgersen
##  9 Torgersen
## 10 Torgersen
## # ... with 334 more rows
```
…
